%YAML 1.1
%TAG !u! tag:unity3d.com,2011:
--- !u!162 &1
EditorUserSettings:
  m_ObjectHideFlags: 0
  serializedVersion: 4
  m_ConfigSettings:
    RecentlyUsedScenePath-0:
      value: 22424703114646680e0b0227036c6c111b07142f1f2b233e2867083debf42d
      flags: 0
    RecentlyUsedScenePath-1:
      value: 22424703114646693d29330420106017171a1d152d3b3535393a223aece4212bf6f53fe8eb75123d293df96d4a2b0f36e613
      flags: 0
    RecentlyUsedScenePath-2:
      value: 22424703114646693d29330420106017171a1d152d3b3535393a223aece4212bf6f53fe8eb751e2f2a07fb2f3b2d0930e5090818f33419081400f84004f1190708
      flags: 0
    RecentlyUsedScenePath-3:
      value: 2242470311464668190f1e2419265314562413332e273e7f092c103cadc43135edd435ece93f7129370bfb25
      flags: 0
    vcSharedLogLevel:
      value: 0d5e400f0650
      flags: 0
  m_VCAutomaticAdd: 1
  m_VCDebugCom: 0
  m_VCDebugCmd: 0
  m_VCDebugOut: 0
  m_SemanticMergeMode: 2
  m_VCShowFailedCheckout: 1
  m_VCOverwriteFailedCheckoutAssets: 1
  m_VCProjectOverlayIcons: 1
  m_VCHierarchyOverlayIcons: 1
  m_VCOtherOverlayIcons: 1
  m_VCAllowAsyncUpdate: 1
